<?xml version="1" ?>
<VTKFile type="UnstructuredGrid" version="0.1" byte_order="">
	 <UnstructuredGrid>
		 <Piece NumberOfPoints="4" NumberOfCells="1">
			 <PointData scalars="scalar"> 
				 <DataArray type="Int32" Name="num" NumberOfComponents="1" format="ascii">
1 
1 
1 
1 
				 </DataArray>
			 </PointData> 
			 <CellData scalars="scalar"> 
				 <DataArray type="Int32" Name="num" NumberOfComponents="1" format="ascii" >
1 
				 </DataArray>
			 </CellData> 
			 <Points>
				 <DataArray type="Float32" NumberOfComponents="3" format="ascii" >
0.270000 
0.000000 
0.100000 
0.290000 
0.000000 
0.100000 
0.290000 
0.100000 
0.100000 
0.270000 
0.100000 
0.100000 
				 </DataArray>
			 </Points>
			 <Cells>
				 <DataArray type="Int32" Name="connectivity" format="ascii">
0 
1 
2 
3 
				 </DataArray>
				 <DataArray type="Int32" Name="offsets" format="ascii">
4 
				 </DataArray>
				 <DataArray type="Int8" Name="types" format="ascii">
9 
				 </DataArray>
			 </Cells>
		 </Piece>
	 </UnstructuredGrid> 
</VTKFile> 
